Project 1: Exploratory Data Analysis
…
I joined my data using full_join since I had multiple variables that overlapped with one another in the data sets: Channel name, Language (which I set as English in the Youtube data since these are U.S. channels), Followers/Subscribers, and Viewers. I also created/replaced a column with the correct cumulative, peak viewers in the Twitch dataset by taking the average viewer data and multiplying it for every day in a year (since streamers stream daily, in most cases). I did not want to drop any rows since the datasets don’t fully share each other’s columns, so full_join was the safest and most convenient to run.

UntidyJoin <- Joined_Data %>% pivot_wider(names_from = Language, 
    values_from = Language)

TidyJoin <- UntidyJoin %>% pivot_longer(c("English":"Swedish"), 
    names_to = "Language", values_to = "Language Spoken", values_drop_na = T) %>% 
    select(-c("Language Spoken")) %>% relocate("Language", .after = "Mature")

TidyJoin %>% select(c(Channel, Language))

## # A tibble: 1,250 x 2
##    Channel    Language  
##    <fct>      <chr>     
##  1 xQcOW      English   
##  2 summit1g   English   
##  3 Gaules     Portuguese
##  4 ESL_CSGO   English   
##  5 Tfue       English   
##  6 Asmongold  English   
##  7 NICKMERCS  English   
##  8 Fextralife English   
##  9 loltyler1  English   
## 10 Anomaly    English   
## # … with 1,240 more rows

Here, I untied and re-tidied my data since it was pretty tidy as is. I got all of the different languages under the Language column and made each of them their own. Then, I re-tidied my data by grabbing all the language columns and putting them back in place again, deleting the duplicate column once pivot_longer was complete.

Part 3: Wrangling

TidyJoin$Uploads <- gsub(",", "", TidyJoin$Uploads)
TidyJoin$Uploads <- as.numeric(TidyJoin$Uploads)

TidyJoin %>% select(c(Channel, Peak.viewers)) %>% arrange(desc(Peak.viewers))

## # A tibble: 1,250 x 2
##    Channel                             Peak.viewers
##    <fct>                                      <dbl>
##  1 Cocomelon - Nursery Rhymes           57088982878
##  2 WWE                                  41314291369
##  3 Ryan's World                         37876135112
##  4 Movieclips                           35071065049
##  5 Like Nastya                          30609490114
##  6 PewDiePie                            25157596143
##  7 Little Baby Bum - Nursery Rhymes &…  24198545886
##  8 ✿ Kids Diana Show                    24179259602
##  9 JustinBieberVEVO                     20054844079
## 10 TheEllenShow                         19487257933
## # … with 1,240 more rows

TidyJoin %>% select(c(Channel, Peak.viewers)) %>% summarize(mean = mean(Peak.viewers), 
    sd = sd(Peak.viewers), min = min(Peak.viewers), max = max(Peak.viewers), 
    count = n(), se = (sd/sqrt(count)))

## # A tibble: 1 x 6
##          mean          sd   min         max count         se
##         <dbl>       <dbl> <dbl>       <dbl> <int>      <dbl>
## 1 1130871304. 3921121387. 19031 57088982878  1250 110906061.

TidyJoin %>% select(c(Channel, Followers)) %>% arrange(desc(Followers))

## # A tibble: 1,250 x 2
##    Channel                     Followers
##    <fct>                           <dbl>
##  1 PewDiePie                  104000000 
##  2 Cocomelon - Nursery Rhymes  78200000 
##  3 5-Minute Crafts             65900000.
##  4 WWE                         57500000 
##  5 Like Nastya                 52300000 
##  6 ✿ Kids Diana Show           50900000 
##  7 Dude Perfect                50300000 
##  8 Marshmello                  44400000 
##  9 Vlad and Nikita             37700000 
## 10 TheEllenShow                37200000 
## # … with 1,240 more rows
…
## # A tibble: 1 x 6
##       mean       sd   min       max count      se
##      <dbl>    <dbl> <dbl>     <dbl> <int>   <dbl>
## 1 2582506. 7111447.  3660 104000000  1249 201223.

TrueViewsTidyJoin <- TidyJoin %>% mutate(Uploads = replace_na(Uploads, 
    1)) %>% mutate(`Views/Uploads` = (Peak.viewers/Uploads))

TrueViewsTidyJoin %>% select(c(Channel, `Views/Uploads`)) %>% 
    drop_na(`Views/Uploads`) %>% arrange(desc(`Views/Uploads`))

## # A tibble: 1,250 x 2
##    Channel          `Views/Uploads`
##    <fct>                      <dbl>
##  1 Bruno Mars            175292912.
##  2 EminemVEVO            169446718.
##  3 PostMaloneVEVO        159520492.
##  4 TaylorSwiftVEVO       156960108.
##  5 JustinBieberVEVO      136427511.
##  6 KatyPerryVEVO         135736842.
##  7 ArianaGrandeVevo      124095546.
##  8 Maroon5VEVO           123164773.
##  9 MalumaVEVO            116927615.
## 10 KarolGVEVO            112326732.
## # … with 1,240 more rows
…
HrPAV %>% group_by(Partnered) %>% filter(Partnered %in% c("True", 
    "False")) %>% summarize(mean = mean(HrPAV), sd = sd(HrPAV), 
    min = min(HrPAV), max = max(HrPAV), count = n(), se = (sd/sqrt(count)))

## # A tibble: 2 x 7
##   Partnered  mean    sd   min   max count    se
##   <fct>     <dbl> <dbl> <dbl> <dbl> <int> <dbl>
## 1 False     2139. 2292.  58.2 8670.    22 489. 
## 2 True      2103. 1412. 107.  8743.   978  45.1

HrPAV %>% group_by(Language) %>% drop_na(HrPAV) %>% summarize(mean = mean(HrPAV), 
    sd = sd(HrPAV), min = min(HrPAV), max = max(HrPAV), count = n(), 
    se = (sd/sqrt(count)))

## # A tibble: 21 x 7
##    Language   mean    sd    min   max count    se
##    <chr>     <dbl> <dbl>  <dbl> <dbl> <int> <dbl>
##  1 Arabic     818.  567.  322.  1768.     5 254. 
##  2 Chinese   2546. 1881.  206.  8638.    30 343. 
##  3 Czech     2788. 1180. 1499.  4720.     6 482. 
##  4 English   2190. 1428.   58.2 8743.   485  64.8
##  5 Finnish   3501.   NA  3501.  3501.     1  NA  
##  6 French    2268. 1829.  294.  8185.    66 225. 
##  7 German    2068. 1368.  545.  8641.    49 195. 
##  8 Greek     1959.   NA  1959.  1959.     1  NA  
##  9 Hungarian 1990. 1004. 1280.  2699.     2 710. 
## 10 Italian   2153.  894.  977.  4762.    17 217. 
## # … with 11 more rows
…
